Sun Aug 26 11:14:57 PDT 2018
fit-nid00398-arrIdx-20 start-jid 14374553
SLURM_CLUSTER_NAME=cori kfoldOff=2
0e9381d335e4c60cb1427cc503b53562  train_Plasmid.py
PWD=/global/cscratch1/sd/andreopo/plasmid4k-20
total 7
-rw-rw---- 1 andreopo andreopo 20799 Jul 29 18:10 Deep_Plasmid.py
-rw-rw-r-- 1 andreopo andreopo  8105 Apr 30 14:17 Oracle_Plasmid.py
-rw-rw-r-- 1 andreopo andreopo 12280 May  7 06:42 Plotter_Plasmid.py
-rw-rw-r-- 1 andreopo andreopo  2881 Apr 30 12:20 Util_Plasmid.py
-rw-rw-r-- 1 andreopo andreopo  1661 Aug 26 11:04 batchTrain.slr
drwxrwx--- 2 andreopo andreopo  4096 Aug 26 09:48 data
-rwxrwxr-x 1 andreopo andreopo  4000 Apr 30 12:20 train_Plasmid.py
Sun Aug 26 11:18:08 PDT 2018
             total       used       free     shared    buffers     cached
Mem:           125         14        110          0          0          7
-/+ buffers/cache:          6        118
Swap:            0          0          0
top - 11:18:09 up 5 days, 11:42,  0 users,  load average: 0.96, 0.48, 0.19
Tasks: 891 total,   2 running, 889 sleeping,   0 stopped,   0 zombie
%Cpu(s):  5.2 us,  0.3 sy,  0.0 ni, 94.4 id,  0.1 wa,  0.0 hi,  0.0 si,  0.0 st
KiB Mem:  13189961+total, 15566288 used, 11633332+free,     9228 buffers
KiB Swap:        0 total,        0 used,        0 free.  8326484 cached Mem

  PID USER      PR  NI    VIRT    RES    SHR S   %CPU  %MEM     TIME+ COMMAND
28001 andreopo  20   0 5603400 4.510g  45604 R 94.444 3.585   2:50.52 python
28109 andreopo  20   0   32896   2968   2012 R 16.667 0.002   0:00.04 top
    8 root      20   0       0      0      0 S  5.556 0.000   4:12.82 rcu_sched
 7033 root      20   0  284632   3808   2268 S  5.556 0.003  19:18.64 ldmsd
Sun Aug 26 11:35:09 PDT 2018
             total       used       free     shared    buffers     cached
Mem:           125         17        108          0          0          7
-/+ buffers/cache:          9        116
Swap:            0          0          0
top - 11:35:09 up 5 days, 11:59,  0 users,  load average: 16.05, 11.78, 8.03
Tasks: 889 total,   1 running, 888 sleeping,   0 stopped,   0 zombie
%Cpu(s):  5.3 us,  0.3 sy,  0.0 ni, 94.3 id,  0.1 wa,  0.0 hi,  0.0 si,  0.0 st
KiB Mem:  13189961+total, 18113080 used, 11378653+free,     9228 buffers
KiB Swap:        0 total,        0 used,        0 free.  8328344 cached Mem

  PID USER      PR  NI    VIRT    RES    SHR S   %CPU  %MEM     TIME+ COMMAND
28001 andreopo  20   0 15.715g 6.895g  51900 S 1133.3 5.481 205:55.30 python
28790 andreopo  20   0   32896   2968   2012 R  5.556 0.002   0:00.03 top
done-Sun Aug 26 19:50:48 PDT 2018
