Thu Apr 19 23:36:28 PDT 2018
fit-nid00346-arrIdx-29 start-jid 11722379
SLURM_CLUSTER_NAME=cori kfoldOff=4
0e9381d335e4c60cb1427cc503b53562  train_Plasmid.py
PWD=/global/cscratch1/sd/andreopo/plasmid4g-29
total 7
-rw-rw---- 1 andreopo andreopo 19736 Apr 19 14:23 Deep_Plasmid.py
-rw-rw---- 1 andreopo andreopo  8105 Apr 19 14:57 Oracle_Plasmid.py
-rw-rw---- 1 andreopo andreopo 12200 Apr 19 14:57 Plotter_Plasmid.py
-rw-rw---- 1 andreopo andreopo  2881 Apr 19 14:23 Util_Plasmid.py
-rw-rw---- 1 andreopo andreopo  1652 Apr 19 22:41 batchTrain.slr
drwxrwx--- 2 andreopo andreopo  4096 Apr 19 22:39 data
-rwxrwx--- 1 andreopo andreopo  4000 Apr 19 14:57 train_Plasmid.py
Thu Apr 19 23:39:29 PDT 2018
             total       used       free     shared    buffers     cached
Mem:           125         36         88          0          0         29
-/+ buffers/cache:          6        118
Swap:            0          0          0
top - 23:39:29 up 28 days, 11:35,  0 users,  load average: 2.83, 5.62, 13.34
Tasks: 898 total,   1 running, 897 sleeping,   0 stopped,   0 zombie
%Cpu(s):  2.7 us,  0.1 sy,  0.0 ni, 97.0 id,  0.1 wa,  0.0 hi,  0.0 si,  0.0 st
KiB Mem:  13189937+total, 38456936 used, 93442432 free,    27856 buffers
KiB Swap:        0 total,        0 used,        0 free. 31336816 cached Mem

  PID USER      PR  NI    VIRT    RES    SHR S   %CPU  %MEM     TIME+ COMMAND
 2480 andreopo  20   0 14.807g 4.714g  51992 S 1200.0 3.748  11:53.28 python
 2749 andreopo  20   0   24664   3044   2012 R  5.882 0.002   0:00.01 top
Thu Apr 19 23:56:29 PDT 2018
             total       used       free     shared    buffers     cached
Mem:           125         36         89          0          0         29
-/+ buffers/cache:          6        118
Swap:            0          0          0
top - 23:56:29 up 28 days, 11:52,  0 users,  load average: 12.24, 13.28, 12.72
Tasks: 894 total,   1 running, 893 sleeping,   0 stopped,   0 zombie
%Cpu(s):  2.7 us,  0.1 sy,  0.0 ni, 97.0 id,  0.1 wa,  0.0 hi,  0.0 si,  0.0 st
KiB Mem:  13189937+total, 38567284 used, 93332088 free,    27856 buffers
KiB Swap:        0 total,        0 used,        0 free. 31337440 cached Mem

  PID USER      PR  NI    VIRT    RES    SHR S   %CPU  %MEM     TIME+ COMMAND
 2480 andreopo  20   0 14.843g 4.867g  51992 S 1058.8 3.869 225:12.31 python
 3314 andreopo  20   0   24664   3044   2012 R  5.882 0.002   0:00.01 top
done-Fri Apr 20 12:29:17 PDT 2018
