Thu Apr 19 23:36:26 PDT 2018
fit-nid00339-arrIdx-28 start-jid 11723986
SLURM_CLUSTER_NAME=cori kfoldOff=3
0e9381d335e4c60cb1427cc503b53562  train_Plasmid.py
PWD=/global/cscratch1/sd/andreopo/plasmid4g-28
total 7
-rw-rw---- 1 andreopo andreopo 19736 Apr 19 14:23 Deep_Plasmid.py
-rw-rw---- 1 andreopo andreopo  8105 Apr 19 14:57 Oracle_Plasmid.py
-rw-rw---- 1 andreopo andreopo 12200 Apr 19 14:57 Plotter_Plasmid.py
-rw-rw---- 1 andreopo andreopo  2881 Apr 19 14:23 Util_Plasmid.py
-rw-rw---- 1 andreopo andreopo  1652 Apr 19 22:41 batchTrain.slr
drwxrwx--- 2 andreopo andreopo  4096 Apr 19 22:39 data
-rwxrwx--- 1 andreopo andreopo  4000 Apr 19 14:57 train_Plasmid.py
Thu Apr 19 23:39:27 PDT 2018
             total       used       free     shared    buffers     cached
Mem:           125         14        111          0          0          7
-/+ buffers/cache:          6        119
Swap:            0          0          0
top - 23:39:27 up 15 days,  7:46,  0 users,  load average: 8.04, 7.24, 13.14
Tasks: 857 total,   1 running, 856 sleeping,   0 stopped,   0 zombie
%Cpu(s):  5.1 us,  0.0 sy,  0.0 ni, 94.8 id,  0.0 wa,  0.0 hi,  0.0 si,  0.0 st
KiB Mem:  13189937+total, 15516676 used, 11638269+free,     8156 buffers
KiB Swap:        0 total,        0 used,        0 free.  8262348 cached Mem

  PID USER      PR  NI    VIRT    RES    SHR S   %CPU  %MEM     TIME+ COMMAND
55769 andreopo  20   0 14.804g 4.941g  51956 S 1164.7 3.928  12:43.75 python
56058 andreopo  20   0   24696   3108   2012 R  5.882 0.002   0:00.01 top
Thu Apr 19 23:56:27 PDT 2018
             total       used       free     shared    buffers     cached
Mem:           125         14        111          0          0          7
-/+ buffers/cache:          6        118
Swap:            0          0          0
top - 23:56:27 up 15 days,  8:03,  0 users,  load average: 13.96, 10.75, 11.51
Tasks: 853 total,   1 running, 852 sleeping,   0 stopped,   0 zombie
%Cpu(s):  5.2 us,  0.0 sy,  0.0 ni, 94.8 id,  0.0 wa,  0.0 hi,  0.0 si,  0.0 st
KiB Mem:  13189937+total, 15518376 used, 11638099+free,     8156 buffers
KiB Swap:        0 total,        0 used,        0 free.  8219596 cached Mem

  PID USER      PR  NI    VIRT    RES    SHR S   %CPU  %MEM     TIME+ COMMAND
55769 andreopo  20   0 14.804g 4.984g  51956 S 606.25 3.962 229:55.28 python
56597 andreopo  20   0   24696   3108   2012 R  6.250 0.002   0:00.02 top
done-Fri Apr 20 11:36:30 PDT 2018
